lab1/dump.vcd
$version Generated by VerilatedVcd $end
$date Thu Jul  7 00:31:28 2022 $end
$timescale 1s $end

 $scope module TOP $end
  $var wire  4 2 a [3:0] $end
  $var wire  2 3 s [1:0] $end
  $var wire  1 4 y $end
  $scope module mux41b $end
   $var wire  4 2 a [3:0] $end
   $var wire  2 3 s [1:0] $end
   $var wire  1 4 y $end
   $scope module i0 $end
    $var wire 32 7 DATA_LEN [31:0] $end
    $var wire 32 6 KEY_LEN [31:0] $end
    $var wire 32 5 NR_KEY [31:0] $end
    $var wire  1 8 default_out [0:0] $end
    $var wire  2 3 key [1:0] $end
    $var wire 12 # lut [11:0] $end
    $var wire  1 4 out [0:0] $end
    $scope module i0 $end
     $var wire 32 7 DATA_LEN [31:0] $end
     $var wire 32 7 HAS_DEFAULT [31:0] $end
     $var wire 32 6 KEY_LEN [31:0] $end
     $var wire 32 5 NR_KEY [31:0] $end
     $var wire 32 9 PAIR_LEN [31:0] $end
     $var wire  1 , data_list(0) [0:0] $end
     $var wire  1 - data_list(1) [0:0] $end
     $var wire  1 . data_list(2) [0:0] $end
     $var wire  1 / data_list(3) [0:0] $end
     $var wire  1 8 default_out [0:0] $end
     $var wire  1 1 hit $end
     $var wire 32 : i [31:0] $end
     $var wire  2 3 key [1:0] $end
     $var wire  2 ( key_list(0) [1:0] $end
     $var wire  2 ) key_list(1) [1:0] $end
     $var wire  2 * key_list(2) [1:0] $end
     $var wire  2 + key_list(3) [1:0] $end
     $var wire 12 # lut [11:0] $end
     $var wire  1 0 lut_out [0:0] $end
     $var wire  1 4 out [0:0] $end
     $var wire  3 $ pair_list(0) [2:0] $end
     $var wire  3 % pair_list(1) [2:0] $end
     $var wire  3 & pair_list(2) [2:0] $end
     $var wire  3 ' pair_list(3) [2:0] $end
    $upscope $end
   $upscope $end
  $upscope $end
 $upscope $end
$enddefinitions $end


#1
b000010100110 #
b110 $
b100 %
b010 &
b000 '
b11 (
b10 )
b01 *
b00 +
0,
0-
0.
0/
00
11
b0000 2
b00 3
04
b00000000000000000000000000000100 5
b00000000000000000000000000000010 6
b00000000000000000000000000000001 7
08
b00000000000000000000000000000011 9
b00000000000000000000000000000100 :
#2
b001010100110 #
b001 '
1/
10
b0001 2
14
#3
b000011100110 #
b011 &
b000 '
1.
0/
00
b0010 2
04
#4
b001011100110 #
b001 '
1/
10
b0011 2
14
#5
b000010101110 #
b101 %
b010 &
b000 '
1-
0.
0/
00
b0100 2
04
#6
b001010101110 #
b001 '
1/
10
b0101 2
14
#7
b000011101110 #
b011 &
b000 '
1.
0/
00
b0110 2
04
#8
b001011101110 #
b001 '
1/
10
b0111 2
14
#9
b000010100111 #
b111 $
b100 %
b010 &
b000 '
1,
0-
0.
0/
00
b1000 2
04
#10
b001010100111 #
b001 '
1/
10
b1001 2
14
#11
b000011100111 #
b011 &
b000 '
1.
0/
00
b1010 2
04
#12
b001011100111 #
b001 '
1/
10
b1011 2
14
#13
b000010101111 #
b101 %
b010 &
b000 '
1-
0.
0/
00
b1100 2
04
#14
b001010101111 #
b001 '
1/
10
b1101 2
14
#15
b000011101111 #
b011 &
b000 '
1.
0/
00
b1110 2
04
#16
b001011101111 #
b001 '
1/
10
b1111 2
14
#17
b000010100110 #
b110 $
b100 %
b010 &
b000 '
0,
0-
0.
0/
00
b0000 2
b01 3
04
#18
b001010100110 #
b001 '
1/
b0001 2
#19
b000011100110 #
b011 &
b000 '
1.
0/
10
b0010 2
14
#20
b001011100110 #
b001 '
1/
b0011 2
#21
b000010101110 #
b101 %
b010 &
b000 '
1-
0.
0/
00
b0100 2
04
#22
b001010101110 #
b001 '
1/
b0101 2
#23
b000011101110 #
b011 &
b000 '
1.
0/
10
b0110 2
14
#24
b001011101110 #
b001 '
1/
b0111 2
#25
b000010100111 #
b111 $
b100 %
b010 &
b000 '
1,
0-
0.
0/
00
b1000 2
04
#26
b001010100111 #
b001 '
1/
b1001 2
#27
b000011100111 #
b011 &
b000 '
1.
0/
10
b1010 2
14
#28
b001011100111 #
b001 '
1/
b1011 2
#29
b000010101111 #
b101 %
b010 &
b000 '
1-
0.
0/
00
b1100 2
04
#30
b001010101111 #
b001 '
1/
b1101 2
#31
b000011101111 #
b011 &
b000 '
1.
0/
10
b1110 2
14
#32
b001011101111 #
b001 '
1/
b1111 2
#33
b000010100110 #
b110 $
b100 %
b010 &
b000 '
0,
0-
0.
0/
00
b0000 2
b10 3
04
#34
b001010100110 #
b001 '
1/
b0001 2
#35
b000011100110 #
b011 &
b000 '
1.
0/
b0010 2
#36
b001011100110 #
b001 '
1/
b0011 2
#37
b000010101110 #
b101 %
b010 &
b000 '
1-
0.
0/
10
b0100 2
14
#38
b001010101110 #
b001 '
1/
b0101 2
#39
b000011101110 #
b011 &
b000 '
1.
0/
b0110 2
#40
b001011101110 #
b001 '
1/
b0111 2
#41
b000010100111 #
b111 $
b100 %
b010 &
b000 '
1,
0-
0.
0/
00
b1000 2
04
#42
b001010100111 #
b001 '
1/
b1001 2
#43
b000011100111 #
b011 &
b000 '
1.
0/
b1010 2
#44
b001011100111 #
b001 '
1/
b1011 2
#45
b000010101111 #
b101 %
b010 &
b000 '
1-
0.
0/
10
b1100 2
14
#46
b001010101111 #
b001 '
1/
b1101 2
#47
b000011101111 #
b011 &
b000 '
1.
0/
b1110 2
#48
b001011101111 #
b001 '
1/
b1111 2
#49
b000010100110 #
b110 $
b100 %
b010 &
b000 '
0,
0-
0.
0/
00
b0000 2
b11 3
04
#50
b001010100110 #
b001 '
1/
b0001 2
#51
b000011100110 #
b011 &
b000 '
1.
0/
b0010 2
#52
b001011100110 #
b001 '
1/
b0011 2
#53
b000010101110 #
b101 %
b010 &
b000 '
1-
0.
0/
b0100 2
#54
b001010101110 #
b001 '
1/
b0101 2
#55
b000011101110 #
b011 &
b000 '
1.
0/
b0110 2
#56
b001011101110 #
b001 '
1/
b0111 2
#57
b000010100111 #
b111 $
b100 %
b010 &
b000 '
1,
0-
0.
0/
10
b1000 2
14
#58
b001010100111 #
b001 '
1/
b1001 2
#59
b000011100111 #
b011 &
b000 '
1.
0/
b1010 2
#60
b001011100111 #
b001 '
1/
b1011 2
#61
b000010101111 #
b101 %
b010 &
b000 '
1-
0.
0/
b1100 2
#62
b001010101111 #
b001 '
1/
b1101 2
#63
b000011101111 #
b011 &
b000 '
1.
0/
b1110 2
#64
b001011101111 #
b001 '
1/
b1111 2
